%YAML 1.1
%TAG !u! tag:unity3d.com,2011:
--- !u!114 &11400000
MonoBehaviour:
  m_ObjectHideFlags: 0
  m_PrefabParentObject: {fileID: 0}
  m_PrefabInternal: {fileID: 0}
  m_GameObject: {fileID: 0}
  m_Enabled: 1
  m_EditorHideFlags: 0
  m_Script: {fileID: 11500000, guid: 42df40e96f01c26469c8674675de91cd, type: 3}
  m_Name: ShortPaperWrap
  m_EditorClassIdentifier: 
  clip: {fileID: 8300000, guid: 78b69fcd15a46ae4793e62017baafd8b, type: 3}
  defaultVolume: 0.9
  defaultPitch: 1
  minPitch: 1
  maxPitch: 1
