%YAML 1.1
%TAG !u! tag:unity3d.com,2011:
--- !u!114 &11400000
MonoBehaviour:
  m_ObjectHideFlags: 0
  m_PrefabParentObject: {fileID: 0}
  m_PrefabInternal: {fileID: 0}
  m_GameObject: {fileID: 0}
  m_Enabled: 0
  m_EditorHideFlags: 0
  m_Script: {fileID: 11500000, guid: b9448374880e0344882d72c158a3a901, type: 3}
  m_Name: Translations
  m_EditorClassIdentifier: 
  translationsFile: {fileID: 4900000, guid: 81a19c949f18e0443b08baccbfcc91f4, type: 3}
  splitToken: 59
