%YAML 1.1
%TAG !u! tag:unity3d.com,2011:
--- !u!74 &7400000
AnimationClip:
  m_ObjectHideFlags: 0
  m_PrefabParentObject: {fileID: 0}
  m_PrefabInternal: {fileID: 0}
  m_Name: LeverDownRight_Left
  serializedVersion: 6
  m_Legacy: 0
  m_Compressed: 0
  m_UseHighQualityCurve: 1
  m_RotationCurves: []
  m_CompressedRotationCurves: []
  m_EulerCurves: []
  m_PositionCurves:
  - curve:
      serializedVersion: 2
      m_Curve:
      - serializedVersion: 2
        time: 0
        value: {x: 0, y: -0.0040621846, z: 10}
        inSlope: {x: 0, y: 0, z: 0}
        outSlope: {x: 0, y: 0, z: 0}
        tangentMode: 0
      - serializedVersion: 2
        time: 1
        value: {x: 0, y: -1, z: 10}
        inSlope: {x: 0, y: 0, z: 0}
        outSlope: {x: 0, y: 0, z: 0}
        tangentMode: 0
      - serializedVersion: 2
        time: 2.8166666
        value: {x: 0, y: -1, z: 10}
        inSlope: {x: 0, y: 0, z: 0}
        outSlope: {x: 0, y: 0, z: 0}
        tangentMode: 0
      - serializedVersion: 2
        time: 2.8333333
        value: {x: 0, y: -1.001, z: 10}
        inSlope: {x: 0, y: 0, z: 0}
        outSlope: {x: 0, y: 0, z: 0}
        tangentMode: 0
      - serializedVersion: 2
        time: 3.8333333
        value: {x: 0, y: 0, z: 10}
        inSlope: {x: 0, y: 0, z: 0}
        outSlope: {x: 0, y: 0, z: 0}
        tangentMode: 0
      m_PreInfinity: 2
      m_PostInfinity: 2
      m_RotationOrder: 4
    path: sprite
  m_ScaleCurves: []
  m_FloatCurves:
  - curve:
      serializedVersion: 2
      m_Curve:
      - serializedVersion: 2
        time: 0
        value: 0
        inSlope: Infinity
        outSlope: Infinity
        tangentMode: 103
      - serializedVersion: 2
        time: 0.33333334
        value: 1
        inSlope: Infinity
        outSlope: Infinity
        tangentMode: 103
      - serializedVersion: 2
        time: 0.5
        value: 0
        inSlope: Infinity
        outSlope: Infinity
        tangentMode: 103
      - serializedVersion: 2
        time: 1
        value: 0
        inSlope: Infinity
        outSlope: Infinity
        tangentMode: 103
      - serializedVersion: 2
        time: 1.1666666
        value: 0
        inSlope: Infinity
        outSlope: Infinity
        tangentMode: 103
      - serializedVersion: 2
        time: 1.8333334
        value: 1
        inSlope: Infinity
        outSlope: Infinity
        tangentMode: 103
      - serializedVersion: 2
        time: 3.3333333
        value: 0
        inSlope: Infinity
        outSlope: Infinity
        tangentMode: 103
      - serializedVersion: 2
        time: 3.6666667
        value: 1
        inSlope: Infinity
        outSlope: Infinity
        tangentMode: 103
      m_PreInfinity: 2
      m_PostInfinity: 2
      m_RotationOrder: 4
    attribute: m_FlipX
    path: sprite
    classID: 212
    script: {fileID: 0}
  m_PPtrCurves:
  - curve:
    - time: 0
      value: {fileID: 21300000, guid: 845c0c27a70697940b954d8e3f24e6cf, type: 3}
    - time: 0.16666667
      value: {fileID: 21300002, guid: 845c0c27a70697940b954d8e3f24e6cf, type: 3}
    - time: 0.33333334
      value: {fileID: 21300000, guid: 845c0c27a70697940b954d8e3f24e6cf, type: 3}
    - time: 0.5
      value: {fileID: 21300002, guid: 845c0c27a70697940b954d8e3f24e6cf, type: 3}
    - time: 0.6666667
      value: {fileID: 21300000, guid: 845c0c27a70697940b954d8e3f24e6cf, type: 3}
    - time: 0.8333333
      value: {fileID: 21300002, guid: 845c0c27a70697940b954d8e3f24e6cf, type: 3}
    - time: 1
      value: {fileID: 21300002, guid: 1bd27e34bff4c244795da742eeff1f30, type: 3}
    - time: 1.1666666
      value: {fileID: 21300006, guid: 1bd27e34bff4c244795da742eeff1f30, type: 3}
    - time: 1.3333334
      value: {fileID: 21300004, guid: 1bd27e34bff4c244795da742eeff1f30, type: 3}
    - time: 1.5
      value: {fileID: 21300002, guid: 1bd27e34bff4c244795da742eeff1f30, type: 3}
    - time: 1.6666666
      value: {fileID: 21300000, guid: 1bd27e34bff4c244795da742eeff1f30, type: 3}
    - time: 1.8333334
      value: {fileID: 21300002, guid: 1bd27e34bff4c244795da742eeff1f30, type: 3}
    - time: 2
      value: {fileID: 21300004, guid: 1bd27e34bff4c244795da742eeff1f30, type: 3}
    - time: 2.1666667
      value: {fileID: 21300006, guid: 1bd27e34bff4c244795da742eeff1f30, type: 3}
    - time: 2.3333333
      value: {fileID: 21300004, guid: 1bd27e34bff4c244795da742eeff1f30, type: 3}
    - time: 2.5
      value: {fileID: 21300002, guid: 1bd27e34bff4c244795da742eeff1f30, type: 3}
    - time: 2.6666667
      value: {fileID: 21300000, guid: 1bd27e34bff4c244795da742eeff1f30, type: 3}
    - time: 2.8333333
      value: {fileID: 21300002, guid: c6073c3dd6eec0c40a17d19bb8a2e4a8, type: 3}
    - time: 3
      value: {fileID: 21300000, guid: c6073c3dd6eec0c40a17d19bb8a2e4a8, type: 3}
    - time: 3.1666667
      value: {fileID: 21300002, guid: c6073c3dd6eec0c40a17d19bb8a2e4a8, type: 3}
    - time: 3.3333333
      value: {fileID: 21300000, guid: c6073c3dd6eec0c40a17d19bb8a2e4a8, type: 3}
    - time: 3.5
      value: {fileID: 21300002, guid: c6073c3dd6eec0c40a17d19bb8a2e4a8, type: 3}
    - time: 3.6666667
      value: {fileID: 21300000, guid: c6073c3dd6eec0c40a17d19bb8a2e4a8, type: 3}
    - time: 3.8333333
      value: {fileID: 21300002, guid: c6073c3dd6eec0c40a17d19bb8a2e4a8, type: 3}
    - time: 3.9166667
      value: {fileID: 21300002, guid: c6073c3dd6eec0c40a17d19bb8a2e4a8, type: 3}
    attribute: m_Sprite
    path: sprite
    classID: 212
    script: {fileID: 0}
  m_SampleRate: 60
  m_WrapMode: 0
  m_Bounds:
    m_Center: {x: 0, y: 0, z: 0}
    m_Extent: {x: 0, y: 0, z: 0}
  m_ClipBindingConstant:
    genericBindings:
    - serializedVersion: 2
      path: 891129758
      attribute: 1
      script: {fileID: 0}
      typeID: 4
      customType: 0
      isPPtrCurve: 0
    - serializedVersion: 2
      path: 891129758
      attribute: 555744692
      script: {fileID: 0}
      typeID: 212
      customType: 0
      isPPtrCurve: 0
    - serializedVersion: 2
      path: 891129758
      attribute: 0
      script: {fileID: 0}
      typeID: 212
      customType: 23
      isPPtrCurve: 1
    pptrCurveMapping:
    - {fileID: 21300000, guid: 845c0c27a70697940b954d8e3f24e6cf, type: 3}
    - {fileID: 21300002, guid: 845c0c27a70697940b954d8e3f24e6cf, type: 3}
    - {fileID: 21300000, guid: 845c0c27a70697940b954d8e3f24e6cf, type: 3}
    - {fileID: 21300002, guid: 845c0c27a70697940b954d8e3f24e6cf, type: 3}
    - {fileID: 21300000, guid: 845c0c27a70697940b954d8e3f24e6cf, type: 3}
    - {fileID: 21300002, guid: 845c0c27a70697940b954d8e3f24e6cf, type: 3}
    - {fileID: 21300002, guid: 1bd27e34bff4c244795da742eeff1f30, type: 3}
    - {fileID: 21300006, guid: 1bd27e34bff4c244795da742eeff1f30, type: 3}
    - {fileID: 21300004, guid: 1bd27e34bff4c244795da742eeff1f30, type: 3}
    - {fileID: 21300002, guid: 1bd27e34bff4c244795da742eeff1f30, type: 3}
    - {fileID: 21300000, guid: 1bd27e34bff4c244795da742eeff1f30, type: 3}
    - {fileID: 21300002, guid: 1bd27e34bff4c244795da742eeff1f30, type: 3}
    - {fileID: 21300004, guid: 1bd27e34bff4c244795da742eeff1f30, type: 3}
    - {fileID: 21300006, guid: 1bd27e34bff4c244795da742eeff1f30, type: 3}
    - {fileID: 21300004, guid: 1bd27e34bff4c244795da742eeff1f30, type: 3}
    - {fileID: 21300002, guid: 1bd27e34bff4c244795da742eeff1f30, type: 3}
    - {fileID: 21300000, guid: 1bd27e34bff4c244795da742eeff1f30, type: 3}
    - {fileID: 21300002, guid: c6073c3dd6eec0c40a17d19bb8a2e4a8, type: 3}
    - {fileID: 21300000, guid: c6073c3dd6eec0c40a17d19bb8a2e4a8, type: 3}
    - {fileID: 21300002, guid: c6073c3dd6eec0c40a17d19bb8a2e4a8, type: 3}
    - {fileID: 21300000, guid: c6073c3dd6eec0c40a17d19bb8a2e4a8, type: 3}
    - {fileID: 21300002, guid: c6073c3dd6eec0c40a17d19bb8a2e4a8, type: 3}
    - {fileID: 21300000, guid: c6073c3dd6eec0c40a17d19bb8a2e4a8, type: 3}
    - {fileID: 21300002, guid: c6073c3dd6eec0c40a17d19bb8a2e4a8, type: 3}
    - {fileID: 21300002, guid: c6073c3dd6eec0c40a17d19bb8a2e4a8, type: 3}
  m_AnimationClipSettings:
    serializedVersion: 2
    m_AdditiveReferencePoseClip: {fileID: 0}
    m_AdditiveReferencePoseTime: 0
    m_StartTime: 0
    m_StopTime: 3.9333334
    m_OrientationOffsetY: 0
    m_Level: 0
    m_CycleOffset: 0
    m_HasAdditiveReferencePose: 0
    m_LoopTime: 1
    m_LoopBlend: 0
    m_LoopBlendOrientation: 0
    m_LoopBlendPositionY: 0
    m_LoopBlendPositionXZ: 0
    m_KeepOriginalOrientation: 0
    m_KeepOriginalPositionY: 1
    m_KeepOriginalPositionXZ: 0
    m_HeightFromFeet: 0
    m_Mirror: 0
  m_EditorCurves:
  - curve:
      serializedVersion: 2
      m_Curve:
      - serializedVersion: 2
        time: 0
        value: 0
        inSlope: 0
        outSlope: 0
        tangentMode: 136
      - serializedVersion: 2
        time: 1
        value: 0
        inSlope: 0
        outSlope: 0
        tangentMode: 136
      - serializedVersion: 2
        time: 2.8166666
        value: 0
        inSlope: 0
        outSlope: 0
        tangentMode: 136
      - serializedVersion: 2
        time: 2.8333333
        value: 0
        inSlope: 0
        outSlope: 0
        tangentMode: 136
      - serializedVersion: 2
        time: 3.8333333
        value: 0
        inSlope: 0
        outSlope: 0
        tangentMode: 136
      m_PreInfinity: 2
      m_PostInfinity: 2
      m_RotationOrder: 4
    attribute: m_LocalPosition.x
    path: sprite
    classID: 4
    script: {fileID: 0}
  - curve:
      serializedVersion: 2
      m_Curve:
      - serializedVersion: 2
        time: 0
        value: -0.0040621846
        inSlope: 0
        outSlope: 0
        tangentMode: 136
      - serializedVersion: 2
        time: 1
        value: -1
        inSlope: 0
        outSlope: 0
        tangentMode: 136
      - serializedVersion: 2
        time: 2.8166666
        value: -1
        inSlope: 0
        outSlope: 0
        tangentMode: 136
      - serializedVersion: 2
        time: 2.8333333
        value: -1.001
        inSlope: 0
        outSlope: 0
        tangentMode: 136
      - serializedVersion: 2
        time: 3.8333333
        value: 0
        inSlope: 0
        outSlope: 0
        tangentMode: 136
      m_PreInfinity: 2
      m_PostInfinity: 2
      m_RotationOrder: 4
    attribute: m_LocalPosition.y
    path: sprite
    classID: 4
    script: {fileID: 0}
  - curve:
      serializedVersion: 2
      m_Curve:
      - serializedVersion: 2
        time: 0
        value: 10
        inSlope: 0
        outSlope: 0
        tangentMode: 136
      - serializedVersion: 2
        time: 1
        value: 10
        inSlope: 0
        outSlope: 0
        tangentMode: 136
      - serializedVersion: 2
        time: 2.8166666
        value: 10
        inSlope: 0
        outSlope: 0
        tangentMode: 136
      - serializedVersion: 2
        time: 2.8333333
        value: 10
        inSlope: 0
        outSlope: 0
        tangentMode: 136
      - serializedVersion: 2
        time: 3.8333333
        value: 10
        inSlope: 0
        outSlope: 0
        tangentMode: 136
      m_PreInfinity: 2
      m_PostInfinity: 2
      m_RotationOrder: 4
    attribute: m_LocalPosition.z
    path: sprite
    classID: 4
    script: {fileID: 0}
  - curve:
      serializedVersion: 2
      m_Curve:
      - serializedVersion: 2
        time: 0
        value: 0
        inSlope: Infinity
        outSlope: Infinity
        tangentMode: 103
      - serializedVersion: 2
        time: 0.33333334
        value: 1
        inSlope: Infinity
        outSlope: Infinity
        tangentMode: 103
      - serializedVersion: 2
        time: 0.5
        value: 0
        inSlope: Infinity
        outSlope: Infinity
        tangentMode: 103
      - serializedVersion: 2
        time: 1
        value: 0
        inSlope: Infinity
        outSlope: Infinity
        tangentMode: 103
      - serializedVersion: 2
        time: 1.1666666
        value: 0
        inSlope: Infinity
        outSlope: Infinity
        tangentMode: 103
      - serializedVersion: 2
        time: 1.8333334
        value: 1
        inSlope: Infinity
        outSlope: Infinity
        tangentMode: 103
      - serializedVersion: 2
        time: 3.3333333
        value: 0
        inSlope: Infinity
        outSlope: Infinity
        tangentMode: 103
      - serializedVersion: 2
        time: 3.6666667
        value: 1
        inSlope: Infinity
        outSlope: Infinity
        tangentMode: 103
      m_PreInfinity: 2
      m_PostInfinity: 2
      m_RotationOrder: 4
    attribute: m_FlipX
    path: sprite
    classID: 212
    script: {fileID: 0}
  m_EulerEditorCurves: []
  m_HasGenericRootTransform: 0
  m_HasMotionFloatCurves: 0
  m_GenerateMotionCurves: 0
  m_Events: []
