%YAML 1.1
%TAG !u! tag:unity3d.com,2011:
--- !u!114 &11400000
MonoBehaviour:
  m_ObjectHideFlags: 0
  m_PrefabParentObject: {fileID: 0}
  m_PrefabInternal: {fileID: 0}
  m_GameObject: {fileID: 0}
  m_Enabled: 1
  m_EditorHideFlags: 0
  m_Script: {fileID: 11500000, guid: f20791764f392fe41af763b68277d4f7, type: 3}
  m_Name: Transparent
  m_EditorClassIdentifier: 
  color: {r: 0, g: 0, b: 0, a: 0}
